
NOTENTABELLE
max.	37.00	100%	6.00	6.0
	36.50	99%	5.93	5.9
	36.00	97%	5.86	5.9
	35.50	96%	5.80	5.8
	35.00	95%	5.73	5.7
	34.50	93%	5.66	5.7
	34.00	92%	5.59	5.6
	33.50	91%	5.53	5.5
	33.00	89%	5.46	5.5
	32.50	88%	5.39	5.4
	32.00	86%	5.32	5.3
	31.50	85%	5.26	5.3
	31.00	84%	5.19	5.2
	30.50	82%	5.12	5.1
	30.00	81%	5.05	5.1
	29.50	80%	4.99	5.0
	29.00	78%	4.92	4.9
	28.50	77%	4.85	4.9
	28.00	76%	4.78	4.8
	27.50	74%	4.72	4.7
	27.00	73%	4.65	4.6
	26.50	72%	4.58	4.6
	26.00	70%	4.51	4.5
	25.50	69%	4.45	4.4
	25.00	68%	4.38	4.4
	24.50	66%	4.31	4.3
	24.00	65%	4.24	4.2
	23.50	64%	4.18	4.2
	23.00	62%	4.11	4.1
	22.50	61%	4.04	4.0
	22.00	59%	3.97	4.0
	21.50	58%	3.91	3.9
	21.00	57%	3.84	3.8
	20.50	55%	3.77	3.8
	20.00	54%	3.70	3.7
	19.50	53%	3.64	3.6
	19.00	51%	3.57	3.6
	18.50	50%	3.50	3.5
	18.00	49%	3.43	3.4
	17.50	47%	3.36	3.4
	17.00	46%	3.30	3.3
	16.50	45%	3.23	3.2
	16.00	43%	3.16	3.2
	15.50	42%	3.09	3.1
	15.00	41%	3.03	3.0
	14.50	39%	2.96	3.0
	14.00	38%	2.89	2.9
	13.50	36%	2.82	2.8
	13.00	35%	2.76	2.8
	12.50	34%	2.69	2.7
	12.00	32%	2.62	2.6
	11.50	31%	2.55	2.6
	11.00	30%	2.49	2.5
	10.50	28%	2.42	2.4
	10.00	27%	2.35	2.4
	9.50	26%	2.28	2.3
	9.00	24%	2.22	2.2
	8.50	23%	2.15	2.1
	8.00	22%	2.08	2.1
	7.50	20%	2.01	2.0
	7.00	19%	1.95	1.9
	6.50	18%	1.88	1.9
	6.00	16%	1.81	1.8
	5.50	15%	1.74	1.7
	5.00	14%	1.68	1.7
	4.50	12%	1.61	1.6
	4.00	11%	1.54	1.5
	3.50	9%	1.47	1.5
	3.00	8%	1.41	1.4
